^C:\DOCUMENTS AND SETTINGS\HONZA\DOKUMENTY\SHARPDEVELOP PROJECTS\PROGRAMUJE HRY\BLUDISTE1\MAINFORM.RESX|C:\DOCUMENTS AND SETTINGS\HONZA\DOKUMENTY\SHARPDEVELOP PROJECTS\PROGRAMUJE HRY\BLUDISTE1\RESOURCES.RESX
C:\DOCUMENTS AND SETTINGS\HONZA\LOCAL SETTINGS\TEMPORARY INTERNET FILES\CONTENT.IE5\INDEX.DAT
C:\DOCUMENTS AND SETTINGS\HONZA\COOKIES\INDEX.DAT
C:\DOCUMENTS AND SETTINGS\HONZA\LOCAL SETTINGS\HISTORY\HISTORY.IE5\INDEX.DAT
C:\DOCUMENTS AND SETTINGS\HONZA\IETLDCACHE\INDEX.DAT
C:\DOCUMENTS AND SETTINGS\HONZA\DOKUMENTY\SHARPDEVELOP PROJECTS\PROGRAMUJE HRY\BLUDISTE1\OBJ\X86\DEBUG\BLUDISTE1.MAINFORM.RESOURCES
C:\DOCUMENTS AND SETTINGS\HONZA\DOKUMENTY\SHARPDEVELOP PROJECTS\PROGRAMUJE HRY\BLUDISTE1\OBJ\X86\DEBUG\BLUDISTE1.RESOURCES.RESOURCES
